{
  "iisSettings": {
    "windowsAuthentication": false,
    "anonymousAuthentication": true,
    "iis": {
      "applicationUrl": "http://localhost/Ghanim.Identity.API",
      "sslPort": 0
    },
    "iisExpress": {
      "applicationUrl": "http://localhost:9999/",
      "sslPort": 0
    }
  },
  "profiles": {
    "IIS Express": {
      "commandName": "IISExpress",
      "launchBrowser": true,
      "launchUrl": "swagger/index.html",
      "environmentVariables": {
        "ASPNETCORE_ENVIRONMENT": "Development"
      },
      "applicationUrl": "\"https://localhost:2733/\";"
    },
    "Ghanim.API": {
      "commandName": "Project",
      "launchBrowser": true,
      "launchUrl": "api/values",
      "environmentVariables": {
        "ASPNETCORE_ENVIRONMENT": "Development"
      },
      "applicationUrl": "http://localhost:49847/"
    },
    "IIS": {
      "commandName": "IIS",
      "launchBrowser": true,
      "launchUrl": "swagger"
    }
  }
}